{
  "config": {
      "target": "http://localhost:3032?php_user=1",
      "phases": [
        {"duration": 10, "arrivalRate": 1}
      ]
  },
  "scenarios": [
    {
      "engine": "socketio",
      "flow": [ {
          "emit": {
            "channel": "call",
            "data": {
              "namespace": "event",
              "fn": "whenCreatedNewEvent",
              "args": {
                "eventId": 19
              }
            }
          }
        }
      ]
    }
  ]
}